sim_svd/xsim_1500.backup.log
#-----------------------------------------------------------
# xsim v2024.2 (64-bit)
# SW Build 5239630 on Fri Nov 08 22:35:27 MST 2024
# IP Build 5239520 on Sun Nov 10 16:12:51 MST 2024
# SharedData Build 5239561 on Fri Nov 08 14:39:27 MST 2024
# Start of session at: Tue Jun 23 00:38:19 2026
# Process ID         : 1500
# Current directory  : E:/CE_128TR/sim_svd
# Command line       : xsim.exe -mode tcl -source {xsim.dir/cnd_snap/xsim_script.tcl}
# Log file           : E:/CE_128TR/sim_svd/xsim.log
# Journal file       : E:/CE_128TR/sim_svd\xsim.jou
# Running On         : LAPTOP-55KNS8Q0
# Platform           : Windows Server 2016 or Windows 10
# Operating System   : 26200
# Processor Detail   : Intel(R) Core(TM) i5-10300H CPU @ 2.50GHz
# CPU Frequency      : 2496 MHz
# CPU Physical cores : 4
# CPU Logical cores  : 8
# Host memory        : 17002 MB
# Swap memory        : 8589 MB
# Total Virtual      : 25592 MB
# Available Virtual  : 14481 MB
#-----------------------------------------------------------
source xsim.dir/cnd_snap/xsim_script.tcl
# xsim {cnd_snap} -autoloadwcfg -tclbatch {rcnd.do}
Time resolution is 1 ps
source rcnd.do
## run all
t=0 feeding=x feed_idx=x vo=0 out_idx=x q=00000000
t=5000 feeding=0 feed_idx=0 vo=0 out_idx=0 q=00000000
t=145000 feeding=1 feed_idx=0 vo=0 out_idx=0 q=00000000
t=155000 feeding=1 feed_idx=1 vo=0 out_idx=0 q=00000000
t=165000 feeding=1 feed_idx=2 vo=0 out_idx=0 q=00000000
t=175000 feeding=1 feed_idx=3 vo=0 out_idx=0 q=00000000
t=185000 feeding=0 feed_idx=4 vo=0 out_idx=0 q=00000000
t=445000 feeding=0 feed_idx=4 vo=0 out_idx=0 q=ffff7fff
t=495000 feeding=0 feed_idx=4 vo=0 out_idx=0 q=00003270
t=505000 feeding=0 feed_idx=4 vo=1 out_idx=0 q=00003270
t=515000 feeding=0 feed_idx=4 vo=1 out_idx=1 q=0000e9e1
t=525000 feeding=0 feed_idx=4 vo=1 out_idx=2 q=0000f907
t=535000 feeding=0 feed_idx=4 vo=1 out_idx=3 q=0000094c
t=545000 feeding=0 feed_idx=4 vo=0 out_idx=0 q=xxxxxxxx
hd0=0000094c0000f9070000e9e100003270
w0(p0re)=00003270 w1(p0im)=0000e9e1 w2(p1re)=0000f907 w3(p1im)=0000094c
expect p0re=00010000 p0im=00020000 p1re=fffd0000 p1im=00040000
$finish called at time : 735 ns : File "E:/CE_128TR/sim_svd/tb_cn_dir.sv" Line 43
## exit
INFO: [Common 17-206] Exiting xsim at Tue Jun 23 00:38:21 2026...
